^C:\USERS\GOTHIC LIBRARY\DOWNLOADS\CPP\НОВАЯ ПАПКА\PRACTIC WORK 18\PRACTIC WORK 18.CPP
C:\USERS\GOTHIC LIBRARY\DOWNLOADS\CPP\Новая папка\PRACTIC WORK 18\X64\DEBUG\VC143.PDB
C:\USERS\GOTHIC LIBRARY\DOWNLOADS\CPP\Новая папка\PRACTIC WORK 18\X64\DEBUG\VC143.IDB
C:\USERS\GOTHIC LIBRARY\DOWNLOADS\CPP\Новая папка\PRACTIC WORK 18\X64\DEBUG\PRACTIC WORK 18.OBJ
